…
We can now calculate the number of "angry" and "joy" words spoken by each character, per episode, controlling for how much the character has spoken in the individual episodes.

``` r
corpus.sent.nrc<-sentence.tokens %>%
  unnest_tokens(word, sentence) %>%
  inner_join(nrc.sub, by="word") %>%
  group_by(Season, Speaker, sentiment) %>%
  summarise(Sent_count=length(sentiment)) %>%
  inner_join(character.num.utter, by=c("Season", "Speaker")) %>%
  mutate(Sent_prop=Sent_count/Num_utterance)

print(corpus.sent.nrc)
```

    ## Source: local data frame [5,901 x 6]
    ## Groups: Season, Speaker [4,050]
    ## 
    ##    Season                Speaker sentiment Sent_count Num_utterance
    ##     <int>                  <chr>     <chr>      <int>         <int>
    ## 1       1             Adil Hoxha     anger          2            19
    ## 2       1             Adil Hoxha       joy          3            19
    ## 3       1          Agnes Skinner       joy          1             4
    ## 4       1              Announcer     anger          2             5
    ## 5       1              Announcer       joy          5             5
    ## 6       1 Apu Nahasapeemapetilon     anger          4            12
    ## 7       1 Apu Nahasapeemapetilon       joy          2            12
    ## 8       1          Barney Gumble     anger          5            30
    ## 9       1          Barney Gumble       joy          3            30
    ## 10      1           Bart Simpson     anger         44           655
    ## # ... with 5,891 more rows, and 1 more variables: Sent_prop <dbl>
…
